$MeshFormat
2.2 0 8
$EndMeshFormat
$Nodes
5
1 -1 -1 0
2 1 -1 0
3 1 1 0
4 -1 1 0
5 0 0 0
$EndNodes
$Elements
8
1 1 2 1 5 1 2
2 1 2 1 6 2 3
3 1 2 1 7 3 4
4 1 2 1 8 4 1
5 2 2 1 1 1 2 5
6 2 2 1 1 4 1 5
7 2 2 1 1 2 3 5
8 2 2 1 1 3 4 5
$EndElements
